,,,,,,,,,
,,,,,,,,,
,,,,,,,,,
,,,,,,,,,
,,,,,,,,,
sampler_label,aggregate_report_count,average,aggregate_report_median,aggregate_report_90%_line,aggregate_report_min,aggregate_report_max,aggregate_report_error%,aggregate_report_rate,aggregate_report_bandwidth
P1-base,1000,12,11,14,8,663,0.0,78,100
P1-ws,1000,73,70,81,59,702,0.0,14,17
P1-ejb,1000,14,13,16,10,506,0.0,68,88
TOTAL,3000,33,14,73,8,702,0.0,29,38
sampler_label,aggregate_report_count,average,aggregate_report_median,aggregate_report_90%_line,aggregate_report_min,aggregate_report_max,aggregate_report_error%,aggregate_report_rate,aggregate_report_bandwidth
P1-base,1000,12,11,13,8,659,0.0,79,101
P1-ws,1000,71,69,77,60,619,0.0,14,18
P1-ejb,1000,14,13,18,11,572,0.0,66,85
TOTAL,3000,32,14,72,8,659,0.0,30,39
sampler_label,aggregate_report_count,average,aggregate_report_median,aggregate_report_90%_line,aggregate_report_min,aggregate_report_max,aggregate_report_error%,aggregate_report_rate,aggregate_report_bandwidth
P1-base,1000,12,12,15,9,587,0.0,75,96
P1-ws,1000,73,69,84,59,833,0.0,14,18
P1-ejb,1000,14,13,16,11,555,0.0,67,87
TOTAL,3000,33,14,73,9,833,0.0,29,38
,,,,,,,,,
sampler_label,aggregate_report_count,average,aggregate_report_median,aggregate_report_90%_line,aggregate_report_min,aggregate_report_max,aggregate_report_error%,aggregate_report_rate,aggregate_report_bandwidth
P1-base,"1000,00","12,00","11,33","14,00","8,33","636,33",0.0,"77,25","98,95"
P1-ws,"1000,00","72,33","69,33","80,67","59,33","718,00",0.0,"13,67","17,69"
P1-ejb,"1000,00","14,00","13,00","16,67","10,67","544,33",0.0,"66,86","86,63"
TOTAL,"3000,00","32,67","14,00","72,67","8,33","731,33",0.0,"29,52","38,09"
